src/wt_unit/test/dump.vcd
$date
	Thu Feb 25 16:53:30 2021
$end
$version
	Icarus Verilog
$end
$timescale
	1ps
$end
$scope module wt_unit $end
$var wire 64 ! W0_Reg [63:0] $end
$var wire 1 " axi_aclk $end
$var wire 1 # axi_resetn $end
$var wire 1 $ en $end
$var wire 1 % hcu_read $end
$var wire 1 & load_reg $end
$var wire 64 ' m_axis_tdata [63:0] $end
$var wire 1 ( m_axis_tready $end
$var wire 128 ) m_axis_tuser [127:0] $end
$var wire 1 * reset $end
$var wire 512 + s_axis_tdata [511:0] $end
$var wire 1 , s_axis_tlast $end
$var wire 128 - s_axis_tuser [127:0] $end
$var wire 1 . s_axis_tvalid $end
$var wire 2 / sha_type [1:0] $end
$var reg 1 0 finish $end
$var reg 7 1 loopbacks [6:0] $end
$var reg 1 2 m_axis_tlast $end
$var reg 1 3 m_axis_tvalid $end
$var reg 1 4 m_axis_tvalid_next $end
$var reg 1 5 s_axis_tready $end
$var reg 1 6 s_axis_tready_next $end
$var reg 2 7 sha_type_reg [1:0] $end
$var reg 3 8 state [2:0] $end
$var reg 3 9 state_next [2:0] $end
$var reg 1 : step_count $end
$var reg 1 ; wait_eof $end
$var integer 32 < b [31:0] $end
$var integer 32 = i [31:0] $end
$scope function sigma $end
$var reg 64 > op1 [63:0] $end
$var reg 64 ? op2 [63:0] $end
$var reg 64 @ op3 [63:0] $end
$var reg 1 A operation $end
$var reg 2 B sha_type [1:0] $end
$var reg 64 C sigma [63:0] $end
$var reg 64 D tempReg [63:0] $end
$var integer 32 E s1 [31:0] $end
$var integer 32 F s2 [31:0] $end
$var integer 32 G s3 [31:0] $end
$upscope $end
$scope begin FSM_SEQ $end
$upscope $end
$scope task reset_task $end
$upscope $end
$upscope $end
$enddefinitions $end
#0
$dumpvars
bx G
bx F
bx E
bx D
bx C
bx B
xA
bx @
bx ?
bx >
b10000 =
bx <
0;
0:
b1 9
b0 8
bx 7
16
05
04
03
02
b0 1
00
b0 /
0.
bx -
x,
bx +
1*
bz )
0(
b0 '
0&
0%
1$
0#
1"
b0 !
$end
#5000
0"
#10000
0*
1#
1(
b10000 =
1"
#15000
0"
#20000
1.
1,
b1000110000001011111011110111011110000001111111000010001101100111111000101110101111000100011001110111011011111000010101001011000110100111111101101110000001001110110110001011110011101111001100111010101100101011001100101001101101001010011000101010011110101101000010000011101111011010110100011110110001000000000000100111011101101100100010011111011011101110101011110111110100100101001010110001100011000011111110000011001001101100001111000101000111001101110110100100010111001000011111100101100111010011001100101000001 +
16
b1 9
b0 7
05
b0 8
b10000 =
1"
#25000
0"
#30000
16
b1 9
05
b0 8
b10000 =
1"
#35000
0"
#40000
16
b1 9
05
b0 8
b10000 =
1"
#45000
0"
#50000
16
b1 9
05
b0 8
b10000 =
1"
#55000
0"
#60000
16
b1 9
05
b0 8
b10000 =
1"
#65000
0"
#70000
16
b1 9
05
b0 8
b10000 =
1"
#75000
0"
#80000
16
b1 9
05
b0 8
b10000 =
1"
#85000
0"
#90000
16
b1 9
05
b0 8
b10000 =
1"
#95000
0"
#100000
16
b1 9
05
b0 8
b10000 =
1"
#105000
0"
#110000
16
b1 9
05
b0 8
b10000 =
1"
#115000
0"
#120000
16
b1 9
05
b0 8
b10000 =
1"
#125000
0"
#130000
16
b1 9
05
b0 8
b10000 =
1"
#135000
0"
#140000
16
b1 9
05
b0 8
b10000 =
1"
#145000
0"
#150000
16
b1 9
05
b0 8
b10000 =
1"
#155000
0"
#160000
16
b1 9
05
b0 8
b10000 =
1"
#165000
0"
#170000
16
b1 9
05
b0 8
b10000 =
1"
#175000
0"
#180000
16
b1 9
05
b0 8
b10000 =
1"
#185000
0"
#190000
16
b1 9
05
b0 8
b10000 =
1"
#195000
0"
#200000
16
b1 9
05
b0 8
b10000 =
1"
#205000
0"
#210000
16
b1 9
05
b0 8
b10000 =
1"
#215000
0"
#220000
16
b1 9
05
b0 8
b10000 =
1"
#225000
0"
#230000
16
b1 9
05
b0 8
b10000 =
1"
#235000
0"
#240000
16
b1 9
05
b0 8
b10000 =
1"
#245000
0"
#250000
16
b1 9
05
b0 8
b10000 =
1"
#255000
0"
#260000
16
b1 9
05
b0 8
b10000 =
1"
#265000
0"
#270000
16
b1 9
05
b0 8
b10000 =
1"
#275000
0"
#280000
16
b1 9
05
b0 8
b10000 =
1"
#285000
0"
#290000
16
b1 9
05
b0 8
b10000 =
1"
#295000
0"
#300000
16
b1 9
05
b0 8
b10000 =
1"
#305000
0"
#310000
16
b1 9
05
b0 8
b10000 =
1"
#315000
0"
#320000
16
b1 9
05
b0 8
b10000 =
1"
#325000
0"
#330000
16
b1 9
05
b0 8
b10000 =
1"
#335000
0"
#340000
16
b1 9
05
b0 8
b10000 =
1"
#345000
0"
#350000
16
b1 9
05
b0 8
b10000 =
1"
#355000
0"
#360000
16
b1 9
05
b0 8
b10000 =
1"
#365000
0"
#370000
16
b1 9
05
b0 8
b10000 =
1"
#375000
0"
#380000
16
b1 9
05
b0 8
b10000 =
1"
#385000
0"
#390000
16
b1 9
05
b0 8
b10000 =
1"
#395000
0"
#400000
16
b1 9
05
b0 8
b10000 =
1"
#405000
0"
#410000
16
b1 9
05
b0 8
b10000 =
1"
#415000
0"
#420000
16
b1 9
05
b0 8
b10000 =
1"
#425000
0"
#430000
16
b1 9
05
b0 8
b10000 =
1"
#435000
0"
#440000
16
b1 9
05
b0 8
b10000 =
1"
#445000
0"
#450000
16
b1 9
05
b0 8
b10000 =
1"
#455000
0"
#460000
16
b1 9
05
b0 8
b10000 =
1"
#465000
0"
#470000
16
b1 9
05
b0 8
b10000 =
1"
#475000
0"
#480000
16
b1 9
05
b0 8
b10000 =
1"
#485000
0"
#490000
16
b1 9
05
b0 8
b10000 =
1"
#495000
0"
#500000
16
b1 9
05
b0 8
b10000 =
1"
#505000
0"
#510000
16
b1 9
05
b0 8
b10000 =
1"
#515000
0"
#520000
16
b1 9
05
b0 8
b10000 =
1"
#525000
0"
#530000
16
b1 9
05
b0 8
b10000 =
1"
#535000
0"
#540000
16
b1 9
05
b0 8
b10000 =
1"
#545000
0"
#550000
16
b1 9
05
b0 8
b10000 =
1"
#555000
0"
#560000
16
b1 9
05
b0 8
b10000 =
1"
#565000
0"
#570000
16
b1 9
05
b0 8
b10000 =
1"
#575000
0"
#580000
16
b1 9
05
b0 8
b10000 =
1"
#585000
0"
#590000
16
b1 9
05
b0 8
b10000 =
1"
#595000
0"
#600000
16
b1 9
05
b0 8
b10000 =
1"
#605000
0"
#610000
16
b1 9
05
b0 8
b10000 =
1"
#615000
0"
#620000
16
b1 9
05
b0 8
b10000 =
1"
#625000
0"
#630000
16
b1 9
05
b0 8
b10000 =
1"
#635000
0"
#640000
16
b1 9
05
b0 8
b10000 =
1"
#645000
0"
#650000
16
b1 9
05
b0 8
b10000 =
1"
#655000
0"
#660000
16
b1 9
05
b0 8
b10000 =
1"
#665000
0"
#670000
16
b1 9
05
b0 8
b10000 =
1"
#675000
0"
#680000
16
b1 9
05
b0 8
b10000 =
1"
#685000
0"
#690000
16
b1 9
05
b0 8
b10000 =
1"
#695000
0"
#700000
16
b1 9
05
b0 8
b10000 =
1"
#705000
0"
#710000
16
b1 9
05
b0 8
b10000 =
1"
#715000
0"
#720000
16
b1 9
05
b0 8
b10000 =
1"
#725000
0"
#730000
16
b1 9
05
b0 8
b10000 =
1"
#735000
0"
#740000
16
b1 9
05
b0 8
b10000 =
1"
#745000
0"
#750000
16
b1 9
05
b0 8
b10000 =
1"
#755000
0"
#760000
16
b1 9
05
b0 8
b10000 =
1"
#765000
0"
#770000
16
b1 9
05
b0 8
b10000 =
1"
#775000
0"
#780000
16
b1 9
05
b0 8
b10000 =
1"
#785000
0"
#790000
16
b1 9
05
b0 8
b10000 =
1"
#795000
0"
#800000
16
b1 9
05
b0 8
b10000 =
1"
#805000
0"
#810000
16
b1 9
05
b0 8
b10000 =
1"
#815000
0"
#820000
16
b1 9
05
b0 8
b10000 =
1"
#825000
0"
#830000
16
b1 9
05
b0 8
b10000 =
1"
#835000
0"
#840000
16
b1 9
05
b0 8
b10000 =
1"
#845000
0"
#850000
16
b1 9
05
b0 8
b10000 =
1"
#855000
0"
#860000
16
b1 9
05
b0 8
b10000 =
1"
#865000
0"
#870000
16
b1 9
05
b0 8
b10000 =
1"
#875000
0"
#880000
16
b1 9
05
b0 8
b10000 =
1"
#885000
0"
#890000
16
b1 9
05
b0 8
b10000 =
1"
#895000
0"
#900000
16
b1 9
05
b0 8
b10000 =
1"
#905000
0"
#910000
16
b1 9
05
b0 8
b10000 =
1"
#915000
0"
#920000
16
b1 9
05
b0 8
b10000 =
1"
#925000
0"
#930000
16
b1 9
05
b0 8
b10000 =
1"
#935000
0"
#940000
16
b1 9
05
b0 8
b10000 =
1"
#945000
0"
#950000
16
b1 9
05
b0 8
b10000 =
1"
#955000
0"
#960000
16
b1 9
05
b0 8
b10000 =
1"
#965000
0"
#970000
16
b1 9
05
b0 8
b10000 =
1"
#975000
0"
#980000
16
b1 9
05
b0 8
b10000 =
1"
#985000
0"
#990000
16
b1 9
05
b0 8
b10000 =
1"
#995000
0"
#1000000
16
b1 9
05
b0 8
b10000 =
1"
#1005000
0"
#1010000
16
b1 9
05
b0 8
b10000 =
1"
#1015000
0"
#1020000
16
b1 9
05
b0 8
b10000 =
1"
#1025000
0"
#1030000
16
b1 9
05
b0 8
b10000 =
1"
#1035000
0"
#1040000
16
b1 9
05
b0 8
b10000 =
1"
#1045000
0"
#1050000
16
b1 9
05
b0 8
b10000 =
1"
#1055000
0"
#1060000
16
b1 9
05
b0 8
b10000 =
1"
#1065000
0"
#1070000
16
b1 9
05
b0 8
b10000 =
1"
#1075000
0"
#1080000
16
b1 9
05
b0 8
b10000 =
1"
#1085000
0"
#1090000
16
b1 9
05
b0 8
b10000 =
1"
#1095000
0"
#1100000
16
b1 9
05
b0 8
b10000 =
1"
#1105000
0"
#1110000
16
b1 9
05
b0 8
b10000 =
1"
#1115000
0"
#1120000
16
b1 9
05
b0 8
b10000 =
1"
#1125000
0"
#1130000
16
b1 9
05
b0 8
b10000 =
1"
#1135000
0"
#1140000
16
b1 9
05
b0 8
b10000 =
1"
#1145000
0"
#1150000
16
b1 9
05
b0 8
b10000 =
1"
#1155000
0"
#1160000
16
b1 9
05
b0 8
b10000 =
1"
#1165000
0"
#1170000
16
b1 9
05
b0 8
b10000 =
1"
#1175000
0"
#1180000
16
b1 9
05
b0 8
b10000 =
1"
#1185000
0"
#1190000
16
b1 9
05
b0 8
b10000 =
1"
#1195000
0"
#1200000
16
b1 9
05
b0 8
b10000 =
1"
#1205000
0"
#1210000
16
b1 9
05
b0 8
b10000 =
1"
#1215000
0"
#1220000
16
b1 9
05
b0 8
b10000 =
1"
#1225000
0"
#1230000
16
b1 9
05
b0 8
b10000 =
1"
#1235000
0"
#1240000
16
b1 9
05
b0 8
b10000 =
1"
#1245000
0"
#1250000
16
b1 9
05
b0 8
b10000 =
1"
#1255000
0"
#1260000
16
b1 9
05
b0 8
b10000 =
1"
#1265000
0"
#1270000
16
b1 9
05
b0 8
b10000 =
1"
#1275000
0"
#1280000
16
b1 9
05
b0 8
b10000 =
1"
#1285000
0"
#1290000
16
b1 9
05
b0 8
b10000 =
1"
#1295000
0"
#1300000
16
b1 9
05
b0 8
b10000 =
1"
#1305000
0"
#1310000
16
b1 9
05
b0 8
b10000 =
1"
#1315000
0"
#1320000
16
b1 9
05
b0 8
b10000 =
1"
#1325000
0"
#1330000
16
b1 9
05
b0 8
b10000 =
1"
#1335000
0"
#1340000
16
b1 9
05
b0 8
b10000 =
1"
#1345000
0"
#1350000
16
b1 9
05
b0 8
b10000 =
1"
#1355000
0"
#1360000
16
b1 9
05
b0 8
b10000 =
1"
#1365000
0"
#1370000
16
b1 9
05
b0 8
b10000 =
1"
#1375000
0"
#1380000
16
b1 9
05
b0 8
b10000 =
1"
#1385000
0"
#1390000
16
b1 9
05
b0 8
b10000 =
1"
#1395000
0"
#1400000
16
b1 9
05
b0 8
b10000 =
1"
#1405000
0"
#1410000
16
b1 9
05
b0 8
b10000 =
1"
#1415000
0"
#1420000
16
b1 9
05
b0 8
b10000 =
1"
#1425000
0"
#1430000
16
b1 9
05
b0 8
b10000 =
1"
#1435000
0"
#1440000
16
b1 9
05
b0 8
b10000 =
1"
#1445000
0"
#1450000
16
b1 9
05
b0 8
b10000 =
1"
#1455000
0"
#1460000
16
b1 9
05
b0 8
b10000 =
1"
#1465000
0"
#1470000
16
b1 9
05
b0 8
b10000 =
1"
#1475000
0"
#1480000
16
b1 9
05
b0 8
b10000 =
1"
#1485000
0"
#1490000
16
b1 9
05
b0 8
b10000 =
1"
#1495000
0"
#1500000
16
b1 9
05
b0 8
b10000 =
1"
#1505000
0"
#1510000
16
b1 9
05
b0 8
b10000 =
1"
#1515000
0"
#1520000
16
b1 9
05
b0 8
b10000 =
1"
#1525000
0"
#1530000
16
b1 9
05
b0 8
b10000 =
1"
#1535000
0"
#1540000
16
b1 9
05
b0 8
b10000 =
1"
#1545000
0"
#1550000
16
b1 9
05
b0 8
b10000 =
1"
#1555000
0"
#1560000
16
b1 9
05
b0 8
b10000 =
1"
#1565000
0"
#1570000
16
b1 9
05
b0 8
b10000 =
1"
#1575000
0"
#1580000
16
b1 9
05
b0 8
b10000 =
1"
#1585000
0"
#1590000
16
b1 9
05
b0 8
b10000 =
1"
#1595000
0"
#1600000
16
b1 9
05
b0 8
b10000 =
1"
#1605000
0"
#1610000
16
b1 9
05
b0 8
b10000 =
1"
#1615000
0"
#1620000
16
b1 9
05
b0 8
b10000 =
1"
#1625000
0"
#1630000
16
b1 9
05
b0 8
b10000 =
1"
#1635000
0"
#1640000
16
b1 9
05
b0 8
b10000 =
1"
#1645000
0"
#1650000
16
b1 9
05
b0 8
b10000 =
1"
#1655000
0"
#1660000
16
b1 9
05
b0 8
b10000 =
1"
#1665000
0"
#1670000
16
b1 9
05
b0 8
b10000 =
1"
#1675000
0"
#1680000
16
b1 9
05
b0 8
b10000 =
1"
#1685000
0"
#1690000
16
b1 9
05
b0 8
b10000 =
1"
#1695000
0"
#1700000
16
b1 9
05
b0 8
b10000 =
1"
#1705000
0"
#1710000
16
b1 9
05
b0 8
b10000 =
1"
#1715000
0"
#1720000
16
b1 9
05
b0 8
b10000 =
1"
#1725000
0"
#1730000
16
b1 9
05
b0 8
b10000 =
1"
#1735000
0"
#1740000
16
b1 9
05
b0 8
b10000 =
1"
#1745000
0"
#1750000
16
b1 9
05
b0 8
b10000 =
1"
#1755000
0"
#1760000
16
b1 9
05
b0 8
b10000 =
1"
#1765000
0"
#1770000
16
b1 9
05
b0 8
b10000 =
1"
#1775000
0"
#1780000
16
b1 9
05
b0 8
b10000 =
1"
#1785000
0"
#1790000
16
b1 9
05
b0 8
b10000 =
1"
#1795000
0"
#1800000
16
b1 9
05
b0 8
b10000 =
1"
#1805000
0"
#1810000
16
b1 9
05
b0 8
b10000 =
1"
#1815000
0"
#1820000
16
b1 9
05
b0 8
b10000 =
1"
#1825000
0"
#1830000
16
b1 9
05
b0 8
b10000 =
1"
#1835000
0"
#1840000
16
b1 9
05
b0 8
b10000 =
1"
#1845000
0"
#1850000
16
b1 9
05
b0 8
b10000 =
1"
#1855000
0"
#1860000
16
b1 9
05
b0 8
b10000 =
1"
#1865000
0"
#1870000
16
b1 9
05
b0 8
b10000 =
1"
#1875000
0"
#1880000
16
b1 9
05
b0 8
b10000 =
1"
#1885000
0"
#1890000
16
b1 9
05
b0 8
b10000 =
1"
#1895000
0"
#1900000
16
b1 9
05
b0 8
b10000 =
1"
#1905000
0"
#1910000
16
b1 9
05
b0 8
b10000 =
1"
#1915000
0"
#1920000
16
b1 9
05
b0 8
b10000 =
1"
#1925000
0"
#1930000
16
b1 9
05
b0 8
b10000 =
1"
#1935000
0"
#1940000
16
b1 9
05
b0 8
b10000 =
1"
#1945000
0"
#1950000
16
b1 9
05
b0 8
b10000 =
1"
#1955000
0"
#1960000
16
b1 9
05
b0 8
b10000 =
1"
#1965000
0"
#1970000
16
b1 9
05
b0 8
b10000 =
1"
#1975000
0"
#1980000
16
b1 9
05
b0 8
b10000 =
1"
#1985000
0"
#1990000
16
b1 9
05
b0 8
b10000 =
1"
#1995000
0"
#2000000
16
b1 9
05
b0 8
b10000 =
1"
#2005000
0"
#2010000
16
b1 9
05
b0 8
b10000 =
1"
#2015000
0"
#2020000
16
b1 9
05
b0 8
b10000 =
1"
#2025000
0"
#2030000
16
b1 9
05
b0 8
b10000 =
1"
#2035000
0"
#2040000
16
b1 9
05
b0 8
b10000 =
1"
#2045000
0"
#2050000
16
b1 9
05
b0 8
b10000 =
1"
#2055000
0"
#2060000
16
b1 9
05
b0 8
b10000 =
1"
#2065000
0"
#2070000
16
b1 9
05
b0 8
b10000 =
1"
#2075000
0"
#2080000
16
b1 9
05
b0 8
b10000 =
1"
#2085000
0"
#2090000
16
b1 9
05
b0 8
b10000 =
1"
#2095000
0"
#2100000
16
b1 9
05
b0 8
b10000 =
1"
#2105000
0"
#2110000
16
b1 9
05
b0 8
b10000 =
1"
#2115000
0"
#2120000
16
b1 9
05
b0 8
b10000 =
1"
#2125000
0"
#2130000
16
b1 9
05
b0 8
b10000 =
1"
#2135000
0"
#2140000
16
b1 9
05
b0 8
b10000 =
1"
#2145000
0"
#2150000
16
b1 9
05
b0 8
b10000 =
1"
#2155000
0"
#2160000
16
b1 9
05
b0 8
b10000 =
1"
#2165000
0"
#2170000
16
b1 9
05
b0 8
b10000 =
1"
#2175000
0"
#2180000
16
b1 9
05
b0 8
b10000 =
1"
#2185000
0"
#2190000
16
b1 9
05
b0 8
b10000 =
1"
#2195000
0"
#2200000
16
b1 9
05
b0 8
b10000 =
1"
#2205000
0"
#2210000
16
b1 9
05
b0 8
b10000 =
1"
#2215000
0"
#2220000
16
b1 9
05
b0 8
b10000 =
1"
#2225000
0"
#2230000
16
b1 9
05
b0 8
b10000 =
1"
#2235000
0"
#2240000
16
b1 9
05
b0 8
b10000 =
1"
#2245000
0"
#2250000
16
b1 9
05
b0 8
b10000 =
1"
#2255000
0"
#2260000
16
b1 9
05
b0 8
b10000 =
1"
#2265000
0"
#2270000
16
b1 9
05
b0 8
b10000 =
1"
#2275000
0"
#2280000
16
b1 9
05
b0 8
b10000 =
1"
#2285000
0"
#2290000
16
b1 9
05
b0 8
b10000 =
1"
#2295000
0"
#2300000
16
b1 9
05
b0 8
b10000 =
1"
#2305000
0"
#2310000
16
b1 9
05
b0 8
b10000 =
1"
#2315000
0"
#2320000
16
b1 9
05
b0 8
b10000 =
1"
#2325000
0"
#2330000
16
b1 9
05
b0 8
b10000 =
1"
#2335000
0"
#2340000
16
b1 9
05
b0 8
b10000 =
1"
#2345000
0"
#2350000
16
b1 9
05
b0 8
b10000 =
1"
#2355000
0"
#2360000
16
b1 9
05
b0 8
b10000 =
1"
#2365000
0"
#2370000
16
b1 9
05
b0 8
b10000 =
1"
#2375000
0"
#2380000
16
b1 9
05
b0 8
b10000 =
1"
#2385000
0"
#2390000
16
b1 9
05
b0 8
b10000 =
1"
#2395000
0"
#2400000
16
b1 9
05
b0 8
b10000 =
1"
#2405000
0"
#2410000
16
b1 9
05
b0 8
b10000 =
1"
#2415000
0"
#2420000
16
b1 9
05
b0 8
b10000 =
1"
#2425000
0"
#2430000
16
b1 9
05
b0 8
b10000 =
1"
#2435000
0"
#2440000
16
b1 9
05
b0 8
b10000 =
1"
#2445000
0"
#2450000
16
b1 9
05
b0 8
b10000 =
1"
#2455000
0"
#2460000
16
b1 9
05
b0 8
b10000 =
1"
#2465000
0"
#2470000
16
b1 9
05
b0 8
b10000 =
1"
#2475000
0"
#2480000
16
b1 9
05
b0 8
b10000 =
1"
#2485000
0"
#2490000
16
b1 9
05
b0 8
b10000 =
1"
#2495000
0"
#2500000
16
b1 9
05
b0 8
b10000 =
1"
#2505000
0"
#2510000
16
b1 9
05
b0 8
b10000 =
1"
#2515000
0"
#2520000
16
b1 9
05
b0 8
b10000 =
1"
#2525000
0"
#2530000
16
b1 9
05
b0 8
b10000 =
1"
#2535000
0"
#2540000
16
b1 9
05
b0 8
b10000 =
1"
#2545000
0"
#2550000
16
b1 9
05
b0 8
b10000 =
1"
#2555000
0"
#2560000
16
b1 9
05
b0 8
b10000 =
1"
#2565000
0"
#2570000
16
b1 9
05
b0 8
b10000 =
1"
#2575000
0"
#2580000
16
b1 9
05
b0 8
b10000 =
1"
#2585000
0"
#2590000
16
b1 9
05
b0 8
b10000 =
1"
#2595000
0"
#2600000
16
b1 9
05
b0 8
b10000 =
1"
#2605000
0"
#2610000
16
b1 9
05
b0 8
b10000 =
1"
#2615000
0"
#2620000
16
b1 9
05
b0 8
b10000 =
1"
#2625000
0"
#2630000
16
b1 9
05
b0 8
b10000 =
1"
#2635000
0"
#2640000
16
b1 9
05
b0 8
b10000 =
1"
#2645000
0"
#2650000
16
b1 9
05
b0 8
b10000 =
1"
#2655000
0"
#2660000
16
b1 9
05
b0 8
b10000 =
1"
#2665000
0"
#2670000
16
b1 9
05
b0 8
b10000 =
1"
#2675000
0"
#2680000
16
b1 9
05
b0 8
b10000 =
1"
#2685000
0"
#2690000
16
b1 9
05
b0 8
b10000 =
1"
#2695000
0"
#2700000
16
b1 9
05
b0 8
b10000 =
1"
#2705000
0"
#2710000
16
b1 9
05
b0 8
b10000 =
1"
#2715000
0"
#2720000
16
b1 9
05
b0 8
b10000 =
1"
#2725000
0"
#2730000
16
b1 9
05
b0 8
b10000 =
1"
#2735000
0"
#2740000
16
b1 9
05
b0 8
b10000 =
1"
#2745000
0"
#2750000
16
b1 9
05
b0 8
b10000 =
1"
#2755000
0"
#2760000
16
b1 9
05
b0 8
b10000 =
1"
#2765000
0"
#2770000
16
b1 9
05
b0 8
b10000 =
1"
#2775000
0"
#2780000
16
b1 9
05
b0 8
b10000 =
1"
#2785000
0"
#2790000
16
b1 9
05
b0 8
b10000 =
1"
#2795000
0"
#2800000
16
b1 9
05
b0 8
b10000 =
1"
#2805000
0"
#2810000
16
b1 9
05
b0 8
b10000 =
1"
#2815000
0"
#2820000
16
b1 9
05
b0 8
b10000 =
1"
#2825000
0"
#2830000
16
b1 9
05
b0 8
b10000 =
1"
#2835000
0"
#2840000
16
b1 9
05
b0 8
b10000 =
1"
#2845000
0"
#2850000
16
b1 9
05
b0 8
b10000 =
1"
#2855000
0"
#2860000
16
b1 9
05
b0 8
b10000 =
1"
#2865000
0"
#2870000
16
b1 9
05
b0 8
b10000 =
1"
#2875000
0"
#2880000
16
b1 9
05
b0 8
b10000 =
1"
#2885000
0"
#2890000
16
b1 9
05
b0 8
b10000 =
1"
#2895000
0"
#2900000
16
b1 9
05
b0 8
b10000 =
1"
#2905000
0"
#2910000
16
b1 9
05
b0 8
b10000 =
1"
#2915000
0"
#2920000
16
b1 9
05
b0 8
b10000 =
1"
#2925000
0"
#2930000
16
b1 9
05
b0 8
b10000 =
1"
#2935000
0"
#2940000
16
b1 9
05
b0 8
b10000 =
1"
#2945000
0"
#2950000
16
b1 9
05
b0 8
b10000 =
1"
#2955000
0"
#2960000
16
b1 9
05
b0 8
b10000 =
1"
#2965000
0"
#2970000
16
b1 9
05
b0 8
b10000 =
1"
#2975000
0"
#2980000
16
b1 9
05
b0 8
b10000 =
1"
#2985000
0"
#2990000
16
b1 9
05
b0 8
b10000 =
1"
#2995000
0"
#3000000
16
b1 9
05
b0 8
b10000 =
1"
#3005000
0"
#3010000
16
b1 9
05
b0 8
b10000 =
1"
#3015000
0"
#3020000
16
b1 9
05
b0 8
b10000 =
1"
#3025000
0"
#3030000
16
b1 9
05
b0 8
b10000 =
1"
#3035000
0"
#3040000
16
b1 9
05
b0 8
b10000 =
1"
#3045000
0"
#3050000
16
b1 9
05
b0 8
b10000 =
1"
#3055000
0"
#3060000
16
b1 9
05
b0 8
b10000 =
1"
#3065000
0"
#3070000
16
b1 9
05
b0 8
b10000 =
1"
#3075000
0"
#3080000
16
b1 9
05
b0 8
b10000 =
1"
#3085000
0"
#3090000
16
b1 9
05
b0 8
b10000 =
1"
#3095000
0"
#3100000
16
b1 9
05
b0 8
b10000 =
1"
#3105000
0"
#3110000
16
b1 9
05
b0 8
b10000 =
1"
#3115000
0"
#3120000
16
b1 9
05
b0 8
b10000 =
1"
#3125000
0"
#3130000
16
b1 9
05
b0 8
b10000 =
1"
#3135000
0"
#3140000
16
b1 9
05
b0 8
b10000 =
1"
#3145000
0"
#3150000
16
b1 9
05
b0 8
b10000 =
1"
#3155000
0"
#3160000
16
b1 9
05
b0 8
b10000 =
1"
#3165000
0"
#3170000
16
b1 9
05
b0 8
b10000 =
1"
#3175000
0"
#3180000
16
b1 9
05
b0 8
b10000 =
1"
#3185000
0"
#3190000
16
b1 9
05
b0 8
b10000 =
1"
#3195000
0"
#3200000
16
b1 9
05
b0 8
b10000 =
1"
#3205000
0"
#3210000
16
b1 9
05
b0 8
b10000 =
1"
#3215000
0"
#3220000
16
b1 9
05
b0 8
b10000 =
1"
#3225000
0"
#3230000
16
b1 9
05
b0 8
b10000 =
1"
#3235000
0"
#3240000
16
b1 9
05
b0 8
b10000 =
1"
#3245000
0"
#3250000
16
b1 9
05
b0 8
b10000 =
1"
#3255000
0"
#3260000
16
b1 9
05
b0 8
b10000 =
1"
#3265000
0"
#3270000
16
b1 9
05
b0 8
b10000 =
1"
#3275000
0"
#3280000
16
b1 9
05
b0 8
b10000 =
1"
#3285000
0"
#3290000
16
b1 9
05
b0 8
b10000 =
1"
#3295000
0"
#3300000
16
b1 9
05
b0 8
b10000 =
1"
#3305000
0"
#3310000
16
b1 9
05
b0 8
b10000 =
1"
#3315000
0"
#3320000
16
b1 9
05
b0 8
b10000 =
1"
#3325000
0"
#3330000
16
b1 9
05
b0 8
b10000 =
1"
#3335000
0"
#3340000
16
b1 9
05
b0 8
b10000 =
1"
#3345000
0"
#3350000
16
b1 9
05
b0 8
b10000 =
1"
#3355000
0"
#3360000
16
b1 9
05
b0 8
b10000 =
1"
#3365000
0"
#3370000
16
b1 9
05
b0 8
b10000 =
1"
#3375000
0"
#3380000
16
b1 9
05
b0 8
b10000 =
1"
#3385000
0"
#3390000
16
b1 9
05
b0 8
b10000 =
1"
#3395000
0"
#3400000
16
b1 9
05
b0 8
b10000 =
1"
#3405000
0"
#3410000
16
b1 9
05
b0 8
b10000 =
1"
#3415000
0"
#3420000
16
b1 9
05
b0 8
b10000 =
1"
#3425000
0"
#3430000
16
b1 9
05
b0 8
b10000 =
1"
#3435000
0"
#3440000
16
b1 9
05
b0 8
b10000 =
1"
#3445000
0"
#3450000
16
b1 9
05
b0 8
b10000 =
1"
#3455000
0"
#3460000
16
b1 9
05
b0 8
b10000 =
1"
#3465000
0"
#3470000
16
b1 9
05
b0 8
b10000 =
1"
#3475000
0"
#3480000
16
b1 9
05
b0 8
b10000 =
1"
#3485000
0"
#3490000
16
b1 9
05
b0 8
b10000 =
1"
#3495000
0"
#3500000
16
b1 9
05
b0 8
b10000 =
1"
#3505000
0"
#3510000
16
b1 9
05
b0 8
b10000 =
1"
#3515000
0"
#3520000
16
b1 9
05
b0 8
b10000 =
1"
#3525000
0"
#3530000
16
b1 9
05
b0 8
b10000 =
1"
#3535000
0"
#3540000
16
b1 9
05
b0 8
b10000 =
1"
#3545000
0"
#3550000
16
b1 9
05
b0 8
b10000 =
1"
#3555000
0"
#3560000
16
b1 9
05
b0 8
b10000 =
1"
#3565000
0"
#3570000
16
b1 9
05
b0 8
b10000 =
1"
#3575000
0"
#3580000
16
b1 9
05
b0 8
b10000 =
1"
#3585000
0"
#3590000
16
b1 9
05
b0 8
b10000 =
1"
#3595000
0"
#3600000
16
b1 9
05
b0 8
b10000 =
1"
#3605000
0"
#3610000
16
b1 9
05
b0 8
b10000 =
1"
#3615000
0"
#3620000
16
b1 9
05
b0 8
b10000 =
1"
#3625000
0"
#3630000
16
b1 9
05
b0 8
b10000 =
1"
#3635000
0"
#3640000
16
b1 9
05
b0 8
b10000 =
1"
#3645000
0"
#3650000
16
b1 9
05
b0 8
b10000 =
1"
#3655000
0"
#3660000
16
b1 9
05
b0 8
b10000 =
1"
#3665000
0"
#3670000
16
b1 9
05
b0 8
b10000 =
1"
#3675000
0"
#3680000
16
b1 9
05
b0 8
b10000 =
1"
#3685000
0"
#3690000
16
b1 9
05
b0 8
b10000 =
1"
#3695000
0"
#3700000
16
b1 9
05
b0 8
b10000 =
1"
#3705000
0"
#3710000
16
b1 9
05
b0 8
b10000 =
1"
#3715000
0"
#3720000
16
b1 9
05
b0 8
b10000 =
1"
#3725000
0"
#3730000
16
b1 9
05
b0 8
b10000 =
1"
#3735000
0"
#3740000
16
b1 9
05
b0 8
b10000 =
1"
#3745000
0"
#3750000
16
b1 9
05
b0 8
b10000 =
1"
#3755000
0"
#3760000
16
b1 9
05
b0 8
b10000 =
1"
#3765000
0"
#3770000
16
b1 9
05
b0 8
b10000 =
1"
#3775000
0"
#3780000
16
b1 9
05
b0 8
b10000 =
1"
#3785000
0"
#3790000
16
b1 9
05
b0 8
b10000 =
1"
#3795000
0"
#3800000
16
b1 9
05
b0 8
b10000 =
1"
#3805000
0"
#3810000
16
b1 9
05
b0 8
b10000 =
1"
#3815000
0"
#3820000
16
b1 9
05
b0 8
b10000 =
1"
#3825000
0"
#3830000
16
b1 9
05
b0 8
b10000 =
1"
#3835000
0"
#3840000
16
b1 9
05
b0 8
b10000 =
1"
#3845000
0"
#3850000
16
b1 9
05
b0 8
b10000 =
1"
#3855000
0"
#3860000
16
b1 9
05
b0 8
b10000 =
1"
#3865000
0"
#3870000
16
b1 9
05
b0 8
b10000 =
1"
#3875000
0"
